{
    "ID": {
        "ayolari_base_url": "https://ayolari.ina17.com/ayolari/",
        "https://api.mapbox.com/styles/v1/{id}/tiles/{z}/{x}/{y}@2x?access_token={accessToken}": "https://{s}.tile.openstreetmap.org/{z}/{x}/{y}.png",
        "pk.eyJ1IjoiaXJmYW5yZXYxNyIsImEiOiJjbHpoNDB4cGQwMG4yMnBxMXY0MG16eXNnIn0.zm924pObJ0R6MZxLzJps6Q": "",
        "flag_playlist_id": "32338878",
        "18967226": "32338878",
        "flag_heart_rate_dynamic": "show",
        "flag_watch_info_acivitydetail": "hide",
        "flag_show_indoor_mode": "hide",
        "flag_show_outdoor_mode": "show",
        "flag_dynamic_watch_connect": "hide",
        "flag_special_offer_card": "hide",
        "flag_show_offer_timeline": "show",
        "flag_show_stamp_data": "show",
        "banner_checkpoint": "10",
        "Image Gagal di Upload": "${e}",
        "Terjadi kesalahan saat mengupload image": "$e",
        "Hai, bergabunglah bersama saya dengan challenge lari yang saya buat! ${mngData.challengeName} dengan kode: ${mngData.code}": "Hai, bergabunglah bersama saya dengan challenge lari yang saya buat! ${mngData.challengeName} dengan kode: ${mngData.code}. http://tsel.id/fiturlari",
        "Hai, bergabunglah bersama saya dengan challenge lari yang saya buat! ${mngData.challengeName}": "Hai, bergabunglah bersama saya dengan challenge lari yang saya buat! ${mngData.challengeName}. http://tsel.id/fiturlari",
        "https://tdwhaqa.telkomsel.com/preprod/api/inner/entertainment/boarding/v1/music": "https://tdw.telkomsel.com/api/inner/entertainment/boarding/v1/music",
        "https://tdwhaqa.telkomsel.com/staging/api/inner/search-datasource/v1/music": "https://tdw.telkomsel.com/api/inner/search-datasource/v1/music",
        "tdcJJhPJIa7cjFoYh1T39aWrsdflVwb46nObac3k": "S4anETzWoDy4OkVme9reg14fEBFFTYduwiHodZvm",
        "https://staging.milov.id/go/asset/ayo_lari/img_running_app_onboard.png": "https://apibo.ayolari.net/cms/public/images/img_running_app_onboard_1207_1731032336.png",
        "https://staging.milov.id/go/asset/ayo_lari/logo.png": "https://apibo.ayolari.net/cms/public/images/Ellipse_6_1731032436.png",      
        "soul_music": "show",
        "Rincian Lari": "Rincian Lari",
        "Ubah Nama Aktivitas": "Ubah Nama Aktivitas",
        "Simpan": "Simpan",
        "Durasi Lari": "Durasi Lari",
        "Jarak": "Jarak",
        "Pace Rata²": "Pace Rata²",
        "Pace Maksimal": "Pace Maksimal",
        "Kalori Aktif": "Kalori Aktif",
        "Total Kalori": "Total Kalori",
        "Nama Aktivitas": "Nama Aktivitas",
        "Aktivitas lari": "Aktivitas lari",
        "Peta": "Peta",
        "Monitor Denyut Jantung": "Monitor Denyut Jantung",
        "Hubungkan smartwatch untuk pantau denyut jantung secara real-time.": "Hubungkan smartwatch untuk pantau denyut jantung secara real-time.",
        "Informasi Denyut Jantung": "Informasi Denyut Jantung",
        "Rentang Denyut Jantung": "Rentang Denyut Jantung",
        "Tingkat Istirahat": "Tingkat Istirahat",
        "ketinggian": "ketinggian",
        "Perolehan Ketinggian": "Perolehan Ketinggian",
        "Maksimal Ketinggian": "Maksimal Ketinggian",
        "Informasi Lainnya": "Informasi Lainnya",
        "Cuaca": "Cuaca",
        "Peringkat": "Peringkat",
        "Hubungkan": "Hubungkan",
        "Berawan": "Berawan",
        "Aktifitas Kamu": "Aktifitas Kamu",
        "Lari Sore": "Lari Sore",
        "Lari Malam": "Lari Malam",
        "App Navigation": "App Navigation",
        "Check your app's UI from the below demo screens of your app.": "Check your app's UI from the below demo screens of your app.",
        "Pilih Lokasi Lari": "Pilih Lokasi Lari",
        "Total Lari Harian": "Total Lari Harian",
        "Event Lari": "",
        "Langkah ``Warm Up & Cool Down`` Menuju Kebugaran Optimal!": "Langkah ``Warm Up & Cool Down`` Menuju Kebugaran Optimal!",
        "Target Pribadi": "Target Pribadi",
        "dari": "dari",
        "Reset Target": "Reset Target",
        "Reset": "Reset",
        "Rata² Kalori": "Rata² Kalori",
        "Waktu": "Waktu",
        "Mulai Lari": "Mulai Lari",
        "Riwayat Lari": "Riwayat Lari",
        "daily": "daily",
        "weekly": "weekly",
        "monthly": "monthly",
        "yearly": "yearly",
        "Atur Target": "Atur Target",
        "Atur Target Pribadi": "Atur Target Pribadi",
        "Rentang Jarak": "Rentang Jarak",
        "Masukan dalam km": "Masukan dalam km",
        "Rentang Waktu": "Rentang Waktu",
        "Harian": "Harian",
        "Mingguan": "Mingguan",
        "Bulanan": "Bulanan",
        "Tahunan": "Tahunan",
        "Peringkat Global": "Peringkat Global",
        "Semua Peringkat": "Semua Peringkat",
        "Total Pelari": "Total Pelari",
        "Peringkat Kamu": "Peringkat Kamu",
        "Dengarkan Lagu Di Langit Musik": "Dengarkan Lagu Di Langit Musik",
        "Cari lagu..": "Cari lagu..",
        "Berlari Lebih Pintar,\nLebih Jauh.": "Berlari Lebih Pintar,\nLebih Jauh.",
        "Ayo Mulai Lari": "Ayo Mulai Lari",
        "Edit Profil": "Edit Profil",
        "Upload Foto Profil": "Upload Foto Profil",
        "Jenis Kelamin": "Jenis Kelamin",
        "Nama Lengkap": "Nama Lengkap",
        "Tinggi Badan": "Tinggi Badan",
        "Berat Badan": "Berat Badan",
        "Golongan Darah": "Golongan Darah",
        "Profil Berhasil Disimpan": "Profil Berhasil Disimpan",
        "Tanggal Lahir": "Tanggal Lahir",
        "Pilih Sumber Foto": "Pilih Sumber Foto",
        "Galeri": "Galeri",
        "Kamera": "Kamera",
        "Laki-laki": "Laki-laki",
        "Profil Kamu": "Profil Kamu",
        "Total Jarak": "Total Jarak",
        "Total Waktu": "Total Waktu",
        "Total Aktivitas": "Total Aktivitas",
        "Isi Data Diri Kamu": "Isi Data Diri Kamu",
        "Masukan data diri kamu dengan benar.": "Masukan data diri kamu dengan benar.",
        "Masukan nama anda": "Masukan nama anda",
        "Selesai": "Selesai",
        "Data Berhasil Disimpan": "Data Berhasil Disimpan",
        "Selanjutnya": "Selanjutnya",
        "Start!": "Start!",
        "Mulai hidup lebih sehat bersama Telkomsel.": "Mulai hidup lebih sehat bersama Telkomsel.",
        "Klaim": "Klaim",
        "Kamu ingin klaim voucher": "Kamu ingin klaim",
        "ini yang berlaku sampai": "ini yang berlaku sampai",
        "Reward Berhasil Diklaim": "Reward Berhasil Diklaim",
        "Reward Belum Tersedia": "Reward Belum Tersedia",
        "Berlaku Sampai": "Berlaku Sampai",
        "Aplikasi ini membantu Anda berlari lebih sehat dan menyenangkan!": "Aplikasi ini membantu Anda berlari lebih sehat dan menyenangkan!",
        "Silahkan cek Inbox SMS & Notifikasi": "Silahkan cek Inbox SMS & Notifikasi",
        "Reward belum tersedia “Ayo Lari Lagi”": "Reward belum tersedia “Ayo Lari Lagi”",
        "Voucher Diskon 10%": "Voucher Diskon 10%",
        "Klaim sebelum 8 Jul 2024": "Klaim sebelum 8 Jul 2024",
        "kkal": "kkal",
        "Challenge": "Challenge",
        "Leaderboard": "Leaderboard",
        "Reward": "Reward",
        "Riwayat Stamp": "Riwayat Stamp",
        "Stamp Lari Saya": "Stamp Lari Saya",
        "STAMP": " Stamp",
        "Stamp": "",
        "Tukar ke MyTelkomsel Poin": "Tukar ke MyTelkomsel Poin",
        "Tukar": "Tukar",
        "Stamp Lari": "Stamp Lari",
        "Masukan jumlah stamp lari": "Masukan jumlah stamp lari",
        "POIN": "POIN",
        "Terdeteksi": "Terdeteksi",
        "Lanjutkan": "Lanjutkan",
        "Detak Jantung": "Detak Jantung",
        "Pace": "Pace",
        "Kalori": "Kalori",
        "Hentikan": "Hentikan",
        "Special Offer": "Event Corner",
        "Special Offer Pilihan": "Event Corner Pilihan",
        "Poin Lari Saya": "",
        "assets/images/ic_offer.png": "https://stgapibo.ayolari.net/ayolari/public/images/transparant.png_1730110588639.png"
    },
    "EN": {
        "ayolari_base_url": "https://ayolari.ina17.com/ayolari/",
        "https://api.mapbox.com/styles/v1/{id}/tiles/{z}/{x}/{y}@2x?access_token={accessToken}": "https://{s}.tile.openstreetmap.org/{z}/{x}/{y}.png",
        "pk.eyJ1IjoiaXJmYW5yZXYxNyIsImEiOiJjbHpoNDB4cGQwMG4yMnBxMXY0MG16eXNnIn0.zm924pObJ0R6MZxLzJps6Q": "",
        "flag_playlist_id": "32338878",
        "18967226": "32338878",
        "flag_heart_rate_dynamic": "show",
        "flag_watch_info_acivitydetail": "hide",
        "flag_show_indoor_mode": "hide",
        "flag_show_outdoor_mode": "show",
        "flag_dynamic_watch_connect": "hide",
        "flag_special_offer_card": "hide",
        "flag_show_offer_timeline": "show",
        "flag_show_stamp_data": "show",
        "banner_checkpoint": "10",
        "https://tdwhaqa.telkomsel.com/preprod/api/inner/entertainment/boarding/v1/music": "https://tdw.telkomsel.com/api/inner/entertainment/boarding/v1/music",
        "https://tdwhaqa.telkomsel.com/staging/api/inner/search-datasource/v1/music": "https://tdw.telkomsel.com/api/inner/search-datasource/v1/music",
        "tdcJJhPJIa7cjFoYh1T39aWrsdflVwb46nObac3k": "S4anETzWoDy4OkVme9reg14fEBFFTYduwiHodZvm",
        "https://staging.milov.id/go/asset/ayo_lari/img_running_app_onboard.png": "https://apibo.ayolari.net/cms/public/images/img_running_app_onboard_1207_1731032336.png",
        "https://staging.milov.id/go/asset/ayo_lari/logo.png": "https://apibo.ayolari.net/cms/public/images/Ellipse_6_1731032436.png",
        "soul_music": "show",
        "Rincian Lari": "Run Details",
        "Ubah Nama Aktivitas": "Edit Activity Name",
        "Simpan": "Save",
        "Durasi Lari": "Run Duration",
        "Jarak": "Distance",
        "Pace Rata²": "Average Pace",
        "Pace Maksimal": "Maximal Pace",
        "Kalori Aktif": "Active Calories",
        "Total Kalori": "Total Calories",
        "Nama Aktivitas": "Activity Name",
        "Aktivitas lari": "Running Activity",
        "Peta": "Map",
        "Monitor Denyut Jantung": "Heart Rate Monitor",
        "Hubungkan smartwatch untuk pantau denyut jantung secara real-time.": "Connect a smartwatch to monitor heart rate in real-time.",
        "Informasi Denyut Jantung": "Heart Rate Information",
        "Rentang Denyut Jantung": "Heart Rate Range",
        "Tingkat Istirahat": "Resting Level",
        "ketinggian": "Elevation",
        "Perolehan Ketinggian": "Elevation Gain",
        "Maksimal Ketinggian": "Maximum Elevation",
        "Informasi Lainnya": "Other Information",
        "Cuaca": "Weather",
        "Peringkat": "Rank",
        "Hubungkan": "Connect",
        "Berawan": "Cloudy",
        "Aktifitas Kamu": "Your Activity",
        "Lari Sore": "Evening Run",
        "Lari Malam": "Night Run",
        "App Navigation": "App Navigation",
        "Aplikasi ini membantu Anda berlari lebih sehat dan menyenangkan!": "This app helps you run healthier and more enjoyable!",
        "Check your app's UI from the below demo screens of your app.": "Check your app's UI from the below demo screens of your app.",
        "Pilih Lokasi Lari": "Choose Running Location",
        "Total Lari Harian": "Daily Run Total",
        "Event Lari": "",
        "Langkah ``Warm Up & Cool Down`` Menuju Kebugaran Optimal!": "Steps to ``Warm Up & Cool Down`` Towards Optimal Fitness!",
        "Target Pribadi": "Personal Target",
        "dari": "from",
        "Reset Target": "Reset Target",
        "Reset": "Reset",
        "Rata² Kalori": "Average Calories",
        "Waktu": "Time",
        "Mulai Lari": "Start Running",
        "Riwayat Lari": "Running History",
        "daily": "daily",
        "weekly": "weekly",
        "monthly": "monthly",
        "yearly": "yearly",
        "Atur Target": "Set Target",
        "Atur Target Pribadi": "Set Personal Target",
        "Rentang Jarak": "Distance Range",
        "Masukan dalam km": "Enter in km",
        "Rentang Waktu": "Time Range",
        "Harian": "Daily",
        "Mingguan": "Weekly",
        "Bulanan": "Monthly",
        "Tahunan": "Yearly",
        "Peringkat Global": "Global Ranking",
        "Semua Peringkat": "All Rankings",
        "Total Pelari": "Total Runners",
        "Peringkat Kamu": "Your Ranking",
        "Dengarkan Lagu Di Langit Musik": "Listen to Songs on Langit Musik",
        "Cari lagu..": "Search song..",
        "Berlari Lebih Pintar,\nLebih Jauh.": "Run Smarter,\nRun Further.",
        "Ayo Mulai Lari": "Let's Start Running",
        "Edit Profil": "Edit Profile",
        "Upload Foto Profil": "Upload Profile Photo",
        "Jenis Kelamin": "Gender",
        "Nama Lengkap": "Full Name",
        "Tinggi Badan": "Height",
        "Berat Badan": "Weight",
        "Golongan Darah": "Blood Type",
        "Profil Berhasil Disimpan": "Profile Successfully Saved",
        "Tanggal Lahir": "Date of Birth",
        "Pilih Sumber Foto": "Choose Photo Source",
        "Galeri": "Gallery",
        "Kamera": "Camera",
        "Laki-laki": "Male",
        "Profil Kamu": "Your Profile",
        "Total Jarak": "Total Distance",
        "Total Waktu": "Total Time",
        "Total Aktivitas": "Total Activities",
        "Isi Data Diri Kamu": "Fill in Your Personal Data",
        "Masukan data diri kamu dengan benar.": "Enter your personal data correctly.",
        "Masukan nama anda": "Enter your name",
        "Selesai": "Done",
        "Data Berhasil Disimpan": "Data Successfully Saved",
        "Selanjutnya": "Next",
        "Start!": "Start!",
        "Mulai hidup lebih sehat bersama Telkomsel.": "Start living healthier with Telkomsel.",
        "Klaim": "Claim",
        "Kamu ingin klaim voucher": "You want to claim",
        "ini yang berlaku sampai": "this which is valid until",
        "Reward Berhasil Diklaim": "Reward Successfully Claimed",
        "Reward Belum Tersedia": "Reward Not Available",
        "Berlaku Sampai": "Valid Until",
        "Silahkan cek Inbox SMS & Notifikasi": "Please check SMS Inbox & Notifications",
        "Reward belum tersedia “Ayo Lari Lagi”": "Reward not available “Let's Run Again”",
        "Voucher Diskon 10%": "10% Discount Voucher",
        "Klaim sebelum 8 Jul 2024": "Claim before 8 Jul 2024",
        "kkal": "kcal",
        "Challenge": "Challenge",
        "Leaderboard": "Leaderboard",
        "Reward": "Reward",
        "Riwayat Stamp": "Stamp History",
        "Stamp Lari Saya": "My Running Stamp",
        "STAMP": " Stamp",
        "Stamp": "",
        "Tukar ke MyTelkomsel Poin": "Exchange to MyTelkomsel Points",
        "Tukar": "Exchange",
        "Stamp Lari": "Running Stamp",
        "Masukan jumlah stamp lari": "Enter the number of running stamps",
        "POIN": "POINTS",
        "Terdeteksi": "Detected",
        "Lanjutkan": "Continue",
        "Detak Jantung": "Heart Rate",
        "Pace": "Pace",
        "Kalori": "Calories",
        "Hentikan": "Stop",
        "Special Offer": "Event Corner",
        "Special Offer Pilihan": "Event Corner Choices",
        "Poin Lari Saya": "",
        "assets/images/ic_offer.png": "https://stgapibo.ayolari.net/ayolari/public/images/transparant.png_1730110588639.png"
    }
}